<svg width="136" height="40" viewBox="0 0 136 40" fill="none" xmlns="http://www.w3.org/2000/svg">
<rect x="0.126953" width="135" height="40" rx="5" fill="black"/>
<path fill-rule="evenodd" clip-rule="evenodd" d="M47.8671 23.0599V24.8599H52.1871C52.1193 25.7077 51.7669 26.5077 51.1871 27.1299C50.3131 28.0201 49.1036 28.4996 47.8571 28.4499C45.2061 28.4499 43.0571 26.3009 43.0571 23.6499C43.0571 20.9989 45.2061 18.8499 47.8571 18.8499C49.0748 18.83 50.2508 19.2939 51.1271 20.1399L52.3971 18.8699C51.202 17.6598 49.5678 16.9851 47.8671 16.9999C45.446 16.9057 43.1674 18.1436 41.9289 20.226C40.6904 22.3083 40.6904 24.9015 41.9289 26.9838C43.1674 29.0662 45.446 30.3041 47.8671 30.2099C49.5988 30.2881 51.2798 29.6136 52.4771 28.3599C53.5247 27.2088 54.0841 25.6957 54.0371 24.1399C54.0403 23.7609 54.0068 23.3824 53.9371 23.0099L47.8671 23.0599ZM58.9571 21.7499C56.6112 21.7554 54.7134 23.6606 54.7171 26.0065C54.7207 28.3524 56.6245 30.2517 58.9704 30.2499C61.3163 30.248 63.217 28.3458 63.2171 25.9999C63.2335 24.8643 62.7883 23.7706 61.9833 22.9694C61.1783 22.1682 60.0826 21.7281 58.9471 21.7499H58.9571ZM64.0371 26.0132C64.0297 23.6686 65.9225 21.7609 68.2671 21.7499C69.4026 21.7281 70.4983 22.1682 71.3033 22.9694C72.1083 23.7706 72.5535 24.8643 72.5371 25.9999C72.537 28.3445 70.6383 30.2462 68.2937 30.2498C65.9491 30.2535 64.0444 28.3578 64.0371 26.0132ZM65.7591 27.1183C66.2157 28.0742 67.2103 28.6538 68.2671 28.5799C68.9303 28.5645 69.5593 28.2819 70.0112 27.7961C70.4631 27.3103 70.6996 26.6626 70.6671 25.9999C70.6645 24.9405 70.0146 23.9904 69.0282 23.604C68.0419 23.2175 66.9195 23.4733 66.198 24.2489C65.4765 25.0246 65.3024 26.1625 65.7591 27.1183ZM56.4424 27.126C56.9023 28.0813 57.8997 28.658 58.9571 28.5799H58.9471C59.6103 28.5645 60.2393 28.2819 60.6912 27.7961C61.1431 27.3103 61.3796 26.6626 61.347 25.9999C61.3442 24.9397 60.693 23.9892 59.7054 23.6036C58.7178 23.218 57.5949 23.4758 56.8744 24.2536C56.1539 25.0314 55.9825 26.1707 56.4424 27.126ZM89.537 21.7499C91.195 21.8109 92.6431 22.8891 93.177 24.4599L93.3871 24.9099L87.697 27.2599C88.0537 28.0721 88.8706 28.5837 89.757 28.5499C90.6129 28.5521 91.4068 28.1038 91.847 27.3699L93.2971 28.3699C92.5077 29.5513 91.1779 30.2576 89.757 30.2499C88.6276 30.2665 87.54 29.823 86.7441 29.0215C85.9482 28.2199 85.5125 27.1292 85.537 25.9999C85.4679 24.8964 85.8587 23.8136 86.6164 23.0084C87.3742 22.2033 88.4314 21.7477 89.537 21.7499ZM87.3771 25.8799C87.3361 25.2551 87.5484 24.64 87.966 24.1735C88.3837 23.7069 88.9715 23.4281 89.597 23.3999C90.2564 23.3564 90.8781 23.7106 91.1771 24.2999L87.3771 25.8799ZM84.627 29.9999H82.757V17.4999H84.627V29.9999ZM79.6971 22.6999H79.6271C79.057 22.0626 78.2421 21.6988 77.3871 21.6999C75.1172 21.81 73.3334 23.6824 73.3334 25.9549C73.3334 28.2274 75.1172 30.0998 77.3871 30.2099C78.2449 30.2243 79.0651 29.8582 79.6271 29.2099H79.6871V29.8199C79.6871 31.4499 78.8171 32.3199 77.4171 32.3199C76.4634 32.2976 75.6178 31.7009 75.2771 30.8099L73.6471 31.4899C74.2747 33.0167 75.7663 34.0098 77.4171 33.9999C79.6071 33.9999 81.4171 32.7099 81.4171 29.5699V21.9999H79.6971V22.6999ZM77.554 28.5796L77.5571 28.5799H77.5471L77.554 28.5796ZM79.239 27.7777C78.8099 28.2633 78.2013 28.5529 77.554 28.5796C76.2184 28.4603 75.1944 27.3411 75.1944 25.9999C75.1944 24.6576 76.2199 23.5377 77.5571 23.4199C78.2032 23.4531 78.8085 23.7457 79.2359 24.2314C79.6633 24.7171 79.8764 25.3548 79.827 25.9999C79.8822 26.6479 79.6697 27.2903 79.239 27.7777ZM101.937 17.4999H97.4671V29.9999H99.3371V25.2599H101.947C103.4 25.3643 104.789 24.6484 105.547 23.4049C106.305 22.1613 106.305 20.5985 105.547 19.3549C104.789 18.1114 103.4 17.3955 101.947 17.4999H101.937ZM99.327 23.4999H101.937L101.977 23.5299C103.162 23.5299 104.122 22.5695 104.122 21.3849C104.122 20.2002 103.162 19.2399 101.977 19.2399H99.327V23.4999ZM113.467 21.6999C112.076 21.6167 110.768 22.367 110.137 23.6099L111.797 24.2999C112.131 23.6836 112.798 23.3227 113.497 23.3799C113.977 23.3239 114.459 23.4629 114.835 23.7656C115.211 24.0683 115.449 24.5095 115.497 24.9899V25.1199C114.896 24.8019 114.227 24.637 113.547 24.6399C111.757 24.6399 109.947 25.6399 109.947 27.4499C109.983 28.2296 110.332 28.9617 110.916 29.4797C111.5 29.9977 112.269 30.2574 113.047 30.1999C114.006 30.2688 114.927 29.8086 115.447 28.9999H115.507V29.9999H117.307V25.1899C117.307 22.9999 115.647 21.7299 113.517 21.7299L113.467 21.6999ZM111.777 27.4899C111.777 28.2399 112.627 28.5499 113.237 28.5499L113.287 28.5799C114.414 28.5524 115.348 27.6993 115.477 26.5799C114.958 26.2903 114.371 26.1452 113.777 26.1599C112.837 26.1599 111.777 26.4899 111.777 27.4899ZM123.867 21.9999L121.727 27.4199H121.667L119.447 21.9999H117.447L120.777 29.5799L118.877 33.7899H120.827L125.947 21.9999H123.867ZM108.927 29.9999H107.057V17.4999H108.927V29.9999Z" fill="white"/>
<path fill-rule="evenodd" clip-rule="evenodd" d="M69.3371 7.76997C68.1574 9.01874 68.1574 10.9712 69.3371 12.22C70.5541 13.4302 72.5201 13.4302 73.7371 12.22C74.9219 10.9732 74.9219 9.01673 73.7371 7.76997C73.1551 7.18372 72.3632 6.854 71.5371 6.854C70.711 6.854 69.9191 7.18372 69.3371 7.76997ZM46.7971 12.24C47.3104 11.7041 47.5815 10.9812 47.5471 10.24C47.5472 10.0891 47.5338 9.93849 47.5071 9.78997H44.5971V10.51H46.7671C46.7523 10.9635 46.5748 11.3965 46.2671 11.73C45.5817 12.3925 44.565 12.5776 43.6901 12.1992C42.8151 11.8208 42.2537 10.9532 42.2671 9.99997C42.2453 9.36919 42.4815 8.75676 42.9212 8.30391C43.3608 7.85106 43.966 7.59687 44.5971 7.59997C45.225 7.56566 45.8325 7.82865 46.2371 8.30997L46.7671 7.77997C46.5111 7.48553 46.189 7.25592 45.8271 7.10997C45.4385 6.94364 45.0199 6.85856 44.5971 6.85997C43.7677 6.84149 42.9677 7.1673 42.3871 7.75997C41.4937 8.65929 41.2264 10.0066 41.7088 11.1789C42.1913 12.3512 43.3295 13.12 44.5971 13.13C45.4236 13.1594 46.2236 12.8358 46.7971 12.24ZM49.4271 7.73997H52.1271V6.99997H48.6271V13H52.1271V12.26H49.4271V10.36H51.8871V9.63997H49.4271V7.73997ZM55.4071 13H54.6371V7.73997H52.9571V6.99997H57.1271V7.73997H55.4071V13ZM60.8371 6.99997H60.0671V13H60.8371V6.99997ZM64.2571 13H63.4871V7.73997H61.8071V6.99997H65.9271V7.73997H64.2571V13ZM76.6471 6.99997H75.7071V13H76.4871V8.10997L79.5371 13H80.3371V6.99997H79.5671V11.67L76.6471 6.99997ZM69.9071 11.72C70.8084 12.6175 72.2658 12.6175 73.1671 11.72C74.0523 10.7441 74.0523 9.2558 73.1671 8.27997C72.2658 7.38241 70.8084 7.38241 69.9071 8.27997C69.0219 9.2558 69.0219 10.7441 69.9071 11.72Z" fill="white"/>
<path d="M69.3371 12.22L69.2644 12.2887L69.2666 12.2909L69.3371 12.22ZM69.3371 7.76997L69.2661 7.6995L69.2644 7.7013L69.3371 7.76997ZM73.7371 12.22L73.8077 12.2909L73.8096 12.2889L73.7371 12.22ZM73.7371 7.76997L73.8096 7.70107L73.8081 7.69952L73.7371 7.76997ZM47.5471 10.24L47.447 10.2399L47.4472 10.2446L47.5471 10.24ZM46.7971 12.24L46.8692 12.3093L46.8693 12.3091L46.7971 12.24ZM47.5071 9.78997L47.6055 9.77229L47.5908 9.68997H47.5071V9.78997ZM44.5971 9.78997V9.68997H44.4971V9.78997H44.5971ZM44.5971 10.51H44.4971V10.61H44.5971V10.51ZM46.7671 10.51L46.8671 10.5132L46.8704 10.41H46.7671V10.51ZM46.2671 11.73L46.3367 11.802L46.3406 11.7978L46.2671 11.73ZM43.6901 12.1992L43.6504 12.291H43.6504L43.6901 12.1992ZM42.2671 9.99997L42.3672 10.0014L42.3671 9.99652L42.2671 9.99997ZM42.9212 8.30391L42.8494 8.23425L42.9212 8.30391ZM44.5971 7.59997L44.5966 7.70015L44.6026 7.69982L44.5971 7.59997ZM46.2371 8.30997L46.1606 8.37432L46.2307 8.45778L46.3078 8.38068L46.2371 8.30997ZM46.7671 7.77997L46.8378 7.85068L46.9038 7.78474L46.8426 7.71436L46.7671 7.77997ZM45.8271 7.10997L45.7878 7.20193L45.7897 7.20271L45.8271 7.10997ZM44.5971 6.85997L44.5949 6.95998L44.5975 6.95997L44.5971 6.85997ZM42.3871 7.75997L42.4581 7.83045L42.4586 7.82995L42.3871 7.75997ZM41.7088 11.1789L41.6163 11.2169L41.7088 11.1789ZM44.5971 13.13L44.6007 13.03L44.5979 13.03L44.5971 13.13ZM52.1271 7.73997V7.83997H52.2271V7.73997H52.1271ZM49.4271 7.73997V7.63997H49.3271V7.73997H49.4271ZM52.1271 6.99997H52.2271V6.89997H52.1271V6.99997ZM48.6271 6.99997V6.89997H48.5271V6.99997H48.6271ZM48.6271 13H48.5271V13.1H48.6271V13ZM52.1271 13V13.1H52.2271V13H52.1271ZM52.1271 12.26H52.2271V12.16H52.1271V12.26ZM49.4271 12.26H49.3271V12.36H49.4271V12.26ZM49.4271 10.36V10.26H49.3271V10.36H49.4271ZM51.8871 10.36V10.46H51.9871V10.36H51.8871ZM51.8871 9.63997H51.9871V9.53997H51.8871V9.63997ZM49.4271 9.63997H49.3271V9.73997H49.4271V9.63997ZM54.6371 13H54.5371V13.1H54.6371V13ZM55.4071 13V13.1H55.5071V13H55.4071ZM54.6371 7.73997H54.7371V7.63997H54.6371V7.73997ZM52.9571 7.73997H52.8571V7.83997H52.9571V7.73997ZM52.9571 6.99997V6.89997H52.8571V6.99997H52.9571ZM57.1271 6.99997H57.2271V6.89997H57.1271V6.99997ZM57.1271 7.73997V7.83997H57.2271V7.73997H57.1271ZM55.4071 7.73997V7.63997H55.3071V7.73997H55.4071ZM60.0671 6.99997V6.89997H59.9671V6.99997H60.0671ZM60.8371 6.99997H60.9371V6.89997H60.8371V6.99997ZM60.0671 13H59.9671V13.1H60.0671V13ZM60.8371 13V13.1H60.9371V13H60.8371ZM63.4871 13H63.3871V13.1H63.4871V13ZM64.2571 13V13.1H64.3571V13H64.2571ZM63.4871 7.73997H63.5871V7.63997H63.4871V7.73997ZM61.8071 7.73997H61.7071V7.83997H61.8071V7.73997ZM61.8071 6.99997V6.89997H61.7071V6.99997H61.8071ZM65.9271 6.99997H66.0271V6.89997H65.9271V6.99997ZM65.9271 7.73997V7.83997H66.0271V7.73997H65.9271ZM64.2571 7.73997V7.63997H64.1571V7.73997H64.2571ZM75.7071 6.99997V6.89997H75.6071V6.99997H75.7071ZM76.6471 6.99997L76.7319 6.94695L76.7025 6.89997H76.6471V6.99997ZM75.7071 13H75.6071V13.1H75.7071V13ZM76.4871 13V13.1H76.5871V13H76.4871ZM76.4871 8.10997L76.572 8.05705L76.3871 7.76069V8.10997H76.4871ZM79.5371 13L79.4523 13.0529L79.4816 13.1H79.5371V13ZM80.3371 13V13.1H80.4371V13H80.3371ZM80.3371 6.99997H80.4371V6.89997H80.3371V6.99997ZM79.5671 6.99997V6.89997H79.4671V6.99997H79.5671ZM79.5671 11.67L79.4823 11.723L79.6671 12.0185V11.67H79.5671ZM73.1671 11.72L73.2378 11.7909L73.2412 11.7872L73.1671 11.72ZM69.9071 11.72L69.833 11.7872L69.8366 11.7908L69.9071 11.72ZM73.1671 8.27997L73.2413 8.2127L73.2377 8.20911L73.1671 8.27997ZM69.9071 8.27997L69.8365 8.20902L69.833 8.21278L69.9071 8.27997ZM69.4098 12.1513C68.2665 10.9411 68.2665 9.04887 69.4098 7.83864L69.2644 7.7013C68.0483 8.98861 68.0483 11.0013 69.2644 12.2886L69.4098 12.1513ZM73.6666 12.1491C72.4886 13.3205 70.5856 13.3205 69.4076 12.1491L69.2666 12.2909C70.5226 13.5399 72.5516 13.5399 73.8076 12.2909L73.6666 12.1491ZM73.6646 7.83886C74.8127 9.04702 74.8127 10.9429 73.6646 12.1511L73.8096 12.2889C75.0311 11.0035 75.0311 8.98644 73.8096 7.70109L73.6646 7.83886ZM71.5371 6.954C72.3366 6.954 73.1029 7.27308 73.6661 7.84042L73.8081 7.69952C73.2073 7.09435 72.3898 6.754 71.5371 6.754V6.954ZM69.4081 7.84042C69.9713 7.27308 70.7377 6.954 71.5371 6.954V6.754C70.6844 6.754 69.8669 7.09435 69.2661 7.69952L69.4081 7.84042ZM47.4472 10.2446C47.4803 10.9585 47.2192 11.6547 46.7249 12.1708L46.8693 12.3091C47.4015 11.7535 47.6826 11.0039 47.647 10.2353L47.4472 10.2446ZM47.4087 9.80765C47.4343 9.95032 47.4472 10.095 47.4471 10.2399L47.6471 10.24C47.6472 10.0832 47.6333 9.92666 47.6055 9.77229L47.4087 9.80765ZM44.5971 9.88997H47.5071V9.68997H44.5971V9.88997ZM44.6971 10.51V9.78997H44.4971V10.51H44.6971ZM46.7671 10.41H44.5971V10.61H46.7671V10.41ZM46.3406 11.7978C46.6646 11.4467 46.8515 10.9907 46.8671 10.5132L46.6672 10.5067C46.6531 10.9362 46.4851 11.3463 46.1936 11.6622L46.3406 11.7978ZM43.6504 12.291C44.5624 12.6855 45.6222 12.4925 46.3366 11.8019L46.1976 11.6581C45.5413 12.2925 44.5676 12.4698 43.7297 12.1074L43.6504 12.291ZM42.1671 9.99857C42.1532 10.9921 42.7383 11.8966 43.6504 12.291L43.7297 12.1074C42.8919 11.7451 42.3543 10.9142 42.3671 10.0014L42.1671 9.99857ZM42.8494 8.23425C42.3908 8.70662 42.1445 9.34545 42.1672 10.0034L42.3671 9.99652C42.3462 9.39293 42.5722 8.8069 42.9929 8.37357L42.8494 8.23425ZM44.5976 7.49997C43.9393 7.49674 43.308 7.76188 42.8494 8.23425L42.9929 8.37357C43.4136 7.94023 43.9927 7.69701 44.5966 7.69997L44.5976 7.49997ZM46.3137 8.24562C45.8888 7.74023 45.2509 7.46409 44.5917 7.50012L44.6026 7.69982C45.1991 7.66723 45.7762 7.91706 46.1606 8.37432L46.3137 8.24562ZM46.6964 7.70926L46.1664 8.23926L46.3078 8.38068L46.8378 7.85068L46.6964 7.70926ZM45.7897 7.20271C46.1369 7.34276 46.446 7.56306 46.6917 7.84559L46.8426 7.71436C46.5762 7.40799 46.241 7.16909 45.8645 7.01723L45.7897 7.20271ZM44.5975 6.95997C45.0066 6.95861 45.4116 7.04094 45.7878 7.20191L45.8665 7.01804C45.4653 6.84634 45.0332 6.75852 44.5968 6.75997L44.5975 6.95997ZM42.4586 7.82995C43.0197 7.25703 43.7931 6.94208 44.5949 6.95995L44.5993 6.76C43.7423 6.7409 42.9156 7.07757 42.3157 7.69L42.4586 7.82995ZM41.8013 11.1408C41.3341 10.0057 41.593 8.70122 42.4581 7.83045L42.3162 7.68949C41.3943 8.61736 41.1186 10.0074 41.6163 11.2169L41.8013 11.1408ZM44.5979 13.03C43.3705 13.0204 42.2684 12.2759 41.8013 11.1408L41.6163 11.2169C42.1141 12.4265 43.2884 13.2197 44.5963 13.23L44.5979 13.03ZM46.7251 12.1706C46.1712 12.7459 45.3988 13.0584 44.6007 13.03L44.5936 13.2299C45.4484 13.2603 46.2759 12.9256 46.8692 12.3093L46.7251 12.1706ZM52.1271 7.63997H49.4271V7.83997H52.1271V7.63997ZM52.0271 6.99997V7.73997H52.2271V6.99997H52.0271ZM48.6271 7.09997H52.1271V6.89997H48.6271V7.09997ZM48.7271 13V6.99997H48.5271V13H48.7271ZM52.1271 12.9H48.6271V13.1H52.1271V12.9ZM52.0271 12.26V13H52.2271V12.26H52.0271ZM49.4271 12.36H52.1271V12.16H49.4271V12.36ZM49.3271 10.36V12.26H49.5271V10.36H49.3271ZM51.8871 10.26H49.4271V10.46H51.8871V10.26ZM51.7871 9.63997V10.36H51.9871V9.63997H51.7871ZM49.4271 9.73997H51.8871V9.53997H49.4271V9.73997ZM49.3271 7.73997V9.63997H49.5271V7.73997H49.3271ZM54.6371 13.1H55.4071V12.9H54.6371V13.1ZM54.5371 7.73997V13H54.7371V7.73997H54.5371ZM52.9571 7.83997H54.6371V7.63997H52.9571V7.83997ZM52.8571 6.99997V7.73997H53.0571V6.99997H52.8571ZM57.1271 6.89997H52.9571V7.09997H57.1271V6.89997ZM57.2271 7.73997V6.99997H57.0271V7.73997H57.2271ZM55.4071 7.83997H57.1271V7.63997H55.4071V7.83997ZM55.5071 13V7.73997H55.3071V13H55.5071ZM60.0671 7.09997H60.8371V6.89997H60.0671V7.09997ZM60.1671 13V6.99997H59.9671V13H60.1671ZM60.8371 12.9H60.0671V13.1H60.8371V12.9ZM60.7371 6.99997V13H60.9371V6.99997H60.7371ZM63.4871 13.1H64.2571V12.9H63.4871V13.1ZM63.3871 7.73997V13H63.5871V7.73997H63.3871ZM61.8071 7.83997H63.4871V7.63997H61.8071V7.83997ZM61.7071 6.99997V7.73997H61.9071V6.99997H61.7071ZM65.9271 6.89997H61.8071V7.09997H65.9271V6.89997ZM66.0271 7.73997V6.99997H65.8271V7.73997H66.0271ZM64.2571 7.83997H65.9271V7.63997H64.2571V7.83997ZM64.3571 13V7.73997H64.1571V13H64.3571ZM75.7071 7.09997H76.6471V6.89997H75.7071V7.09997ZM75.8071 13V6.99997H75.6071V13H75.8071ZM76.4871 12.9H75.7071V13.1H76.4871V12.9ZM76.3871 8.10997V13H76.5871V8.10997H76.3871ZM79.622 12.947L76.572 8.05705L76.4023 8.16289L79.4523 13.0529L79.622 12.947ZM80.3371 12.9H79.5371V13.1H80.3371V12.9ZM80.2371 6.99997V13H80.4371V6.99997H80.2371ZM79.5671 7.09997H80.3371V6.89997H79.5671V7.09997ZM79.6671 11.67V6.99997H79.4671V11.67H79.6671ZM76.5623 7.05299L79.4823 11.723L79.6519 11.617L76.7319 6.94695L76.5623 7.05299ZM73.0966 11.6491C72.2342 12.5078 70.84 12.5078 69.9777 11.6491L69.8366 11.7908C70.7769 12.7273 72.2973 12.7273 73.2377 11.7908L73.0966 11.6491ZM73.0931 8.34716C73.9437 9.28487 73.9437 10.7151 73.0931 11.6528L73.2412 11.7872C74.161 10.7732 74.161 9.22673 73.2412 8.21278L73.0931 8.34716ZM69.9777 8.35083C70.84 7.49212 72.2342 7.49212 73.0966 8.35083L73.2377 8.20911C72.2973 7.27269 70.7769 7.27269 69.8366 8.20911L69.9777 8.35083ZM69.9812 11.6528C69.1306 10.7151 69.1306 9.28487 69.9812 8.34716L69.833 8.21278C68.9133 9.22673 68.9133 10.7732 69.833 11.7872L69.9812 11.6528Z" fill="white"/>
<path d="M10.5671 7.53997C10.2412 7.93108 10.0767 8.43177 10.1071 8.93997V31.06C10.0767 31.5682 10.2412 32.0689 10.5671 32.46L10.6371 32.53L23.0271 20.15V19.86L10.6371 7.46997L10.5671 7.53997Z" fill="url(#paint0_linear)"/>
<path d="M27.1264 24.28L23.0264 20.15V19.86L27.1264 15.72L27.2164 15.77L32.1264 18.56C33.5264 19.35 33.5264 20.65 32.1264 21.45L27.2364 24.23L27.1264 24.28Z" fill="url(#paint1_linear)"/>
<path d="M27.2464 24.22L23.0264 20L10.5664 32.46C11.1551 32.9775 12.0288 33.0027 12.6464 32.52L27.2564 24.22" fill="url(#paint2_linear)"/>
<path d="M27.2466 15.7801L12.6366 7.48005C12.0191 6.99733 11.1454 7.02253 10.5566 7.54005L23.0266 20.0001L27.2466 15.7801Z" fill="url(#paint3_linear)"/>
<path opacity="0.2" d="M27.1264 24.1301L12.6364 32.3801C12.0434 32.8235 11.2294 32.8235 10.6364 32.3801L10.5664 32.4501L10.6364 32.5201C11.2283 32.9668 12.0446 32.9668 12.6364 32.5201L27.2464 24.2201L27.1264 24.1301Z" fill="black"/>
<path opacity="0.12" fill-rule="evenodd" clip-rule="evenodd" d="M27.1271 24.13L32.1271 21.3C32.6438 21.045 33.0131 20.5648 33.1271 20C33.0756 20.6244 32.6942 21.1736 32.1271 21.44L27.2171 24.22L27.1271 24.13ZM10.1049 31.1147C10.1214 31.5546 10.2829 31.979 10.5671 32.32L10.6371 32.4L10.5671 32.47C10.2507 32.0904 10.0864 31.6075 10.1049 31.1147ZM10.1049 31.1147C10.1055 31.0998 10.1062 31.0849 10.1071 31.07V30.92C10.1032 30.9851 10.1025 31.05 10.1049 31.1147Z" fill="black"/>
<path opacity="0.25" d="M12.6367 7.61994L32.1267 18.6999C32.6434 18.955 33.0127 19.4351 33.1267 19.9999C33.0751 19.3755 32.6938 18.8263 32.1267 18.5599L12.6367 7.47994C11.2367 6.68994 10.0967 7.34994 10.0967 8.94994V9.09994C10.1267 7.48994 11.2467 6.82994 12.6367 7.61994Z" fill="white"/>
<defs>
<linearGradient id="paint0_linear" x1="17.6003" y1="-7.559" x2="-2.2391" y2="-2.28266" gradientUnits="userSpaceOnUse">
<stop stop-color="#00A0FF"/>
<stop offset="0.01" stop-color="#00A1FF"/>
<stop offset="0.26" stop-color="#00BEFF"/>
<stop offset="0.51" stop-color="#00D2FF"/>
<stop offset="0.76" stop-color="#00DFFF"/>
<stop offset="1" stop-color="#00E3FF"/>
</linearGradient>
<linearGradient id="paint1_linear" x1="33.9564" y1="9.79966" x2="9.76637" y2="9.79966" gradientUnits="userSpaceOnUse">
<stop stop-color="#FFE000"/>
<stop offset="0.41" stop-color="#FFBD00"/>
<stop offset="0.78" stop-color="#FFA500"/>
<stop offset="1" stop-color="#FF9C00"/>
</linearGradient>
<linearGradient id="paint2_linear" x1="10.2003" y1="13.5275" x2="-5.73615" y2="40.3341" gradientUnits="userSpaceOnUse">
<stop stop-color="#FF3A44"/>
<stop offset="1" stop-color="#C31162"/>
</linearGradient>
<linearGradient id="paint3_linear" x1="0.836659" y1="4.09606" x2="7.94994" y2="16.0665" gradientUnits="userSpaceOnUse">
<stop stop-color="#32A071"/>
<stop offset="0.07" stop-color="#2DA771"/>
<stop offset="0.48" stop-color="#15CF74"/>
<stop offset="0.8" stop-color="#06E775"/>
<stop offset="1" stop-color="#00F076"/>
</linearGradient>
</defs>
</svg>
