<svg width="100" height="120" viewBox="0 0 100 120" fill="none" xmlns="http://www.w3.org/2000/svg">
<path d="M0 44.5941C0 30.2937 10.0938 17.9812 24.1165 15.1767L64.1165 7.17669C82.6803 3.46394 100 17.6627 100 36.5941V86.8504C100 104.599 84.6755 118.468 67.0149 116.701L27.0149 112.701C11.6788 111.168 0 98.2629 0 82.8504V44.5941Z" fill="#F3F5FB"/>
<path fill-rule="evenodd" clip-rule="evenodd" d="M45.4106 59.5652C45.4106 59.5652 44.4689 61.8769 42.4102 63.4582C40.3514 65.0396 38.0435 65 38.0435 65H36.9565V85.6522H61.5977C62.807 85.6522 64.2541 84.8143 64.8483 83.7808C64.8483 83.7808 67.1197 80.2701 69.2806 73.6957C71.4416 67.1213 71.6812 63.8512 71.6812 63.8512C72.0746 61.4957 70.4 59.5652 67.998 59.5652H56.5218L58.6957 47.6006C58.6957 45.8184 57.2381 44.3479 55.4401 44.3479H52.1739L45.4106 59.5652Z" stroke="#1D73EC" stroke-width="4" stroke-linecap="round" stroke-linejoin="round"/>
<rect x="28.2607" y="62.8261" width="8.69565" height="22.8261" stroke="#1D73EC" stroke-width="4" stroke-linecap="round" stroke-linejoin="round"/>
</svg>
