<?xml version="1.0" encoding="utf-8"?>
<!-- Generator: Adobe Illustrator 22.0.1, SVG Export Plug-In . SVG Version: 6.00 Build 0)  -->
<svg version="1.1" id="Layer_1" xmlns="http://www.w3.org/2000/svg" xmlns:xlink="http://www.w3.org/1999/xlink" x="0px" y="0px"
	 viewBox="0 0 213.8 55" style="enable-background:new 0 0 213.8 55;" xml:space="preserve">
<style type="text/css">
	.st0{fill:#F37B20;}
	.st1{fill:#FAB37C;}
	.st2{fill:#171113;}
</style>
<g>
	<path class="st0" d="M32.9,17.2v29.1l-3,1.8L27,46.4V17.2l-7.4,4.6v24.9l10.3,6.3l10.4-6.3V21.8L32.9,17.2z M29.9,1.8L8.4,15v25
		l5.6,3.3v-25l16-9.7l16,9.7h0.1v24.9l5.6-3.3V15L29.9,1.8z"/>
	<path class="st1" d="M51.7,15L29.9,1.8L8.4,15l5.6,3.3l16-9.7l16,9.7L51.7,15z M32.9,17.2v9.2l7.6-4.6L32.9,17.2z M19.7,21.8
		l7.4,4.6v-9.2L19.7,21.8z"/>
	<polygon class="st2" points="84.7,39 83.2,19.9 75.6,39.1 73.2,39.1 65.7,19.9 64.2,39 61.1,39 63,15 67,15 74.5,34.7 81.9,15 
		85.9,15 87.8,39 	"/>
	<path class="st2" d="M100.4,30.6c-6.1,0.6-7.4,2.3-7.4,4c0,1.4,0.9,2.2,2.5,2.2c1.8,0,3.6-0.9,4.9-2.3V30.6z M101.1,39l-0.3-2.2
		c-1.4,1.4-3.1,2.5-5.8,2.5c-3,0-4.8-1.8-4.8-4.6c0-4.1,3.6-5.7,10.4-6.5v-0.7c0-2.1-1.3-2.9-3.2-2.9c-2.1,0-3.9,0.6-5.7,1.4
		l-0.5-2.6C93,22.6,95,22,97.5,22c4,0,6,1.6,6,5.3V39H101.1L101.1,39z"/>
	<path class="st2" d="M112.8,24.3c-2.1,0-3.3,1.6-3.3,3.7c0,1.9,1.4,3.4,3.3,3.4c2.1,0,3.4-1.6,3.4-3.6
		C116.2,25.8,114.8,24.3,112.8,24.3 M108.3,40.8c0,1.4,1.7,2.3,4.9,2.3c3.2,0,5-1.1,5-2.5c0-1-0.8-1.7-3.1-2.1l-1.9-0.3
		c-0.9-0.2-1.4-0.2-2.1-0.5C109.1,38.6,108.3,39.6,108.3,40.8 M121.2,22.2l0.5,2.8l-3.2,0.3c0.5,0.8,0.7,1.6,0.7,2.5
		c0,3.6-3,5.7-6.3,5.7c-0.5,0-0.8,0-1.3-0.1c-0.5,0.3-0.8,0.7-0.8,1c0,0.6,0.6,0.7,3.6,1.3l1.1,0.2c3.6,0.6,5.7,1.7,5.7,4.4
		c0,3.4-3.8,5.2-8.1,5.2c-4.4,0-7.8-1.4-7.8-4.2c0-1.7,1.1-3,3.6-4.2c-0.7-0.6-1-1.1-1-1.7c0-0.8,0.6-1.6,1.7-2.3
		c-1.8-0.9-3.1-2.6-3.1-4.9c0-3.6,3-5.7,6.3-5.7c1.7,0,3.1,0.5,4.2,1.4L121.2,22.2z"/>
	<path class="st2" d="M128.9,24.5c-1.9,0-3.6,1.4-4,4.2h8C132.5,26,131.3,24.5,128.9,24.5 M136,31.1h-11.2c0.1,3.9,1.9,5.6,4.8,5.6
		c2.4,0,4.1-0.9,6-2.4L136,37c-1.7,1.4-3.9,2.2-6.6,2.2c-4.4,0-7.7-2.6-7.7-8.7c0-5.3,3.1-8.6,7.3-8.6c4.8,0,7,3.7,7,8.2L136,31.1
		L136,31.1z"/>
	<path class="st2" d="M149,39V27.7c0-1.7-0.7-2.9-2.5-2.9c-1.6,0-3.3,1-4.8,2.6V39h-3.1V22.5h2.5l0.3,2.4c1.6-1.4,3.6-2.7,5.8-2.7
		c3.1,0,4.8,1.8,4.8,4.8v12H149L149,39z"/>
	<path class="st2" d="M161.2,39.3c-2.9,0-4.8-1-4.8-4.4v-9.9h-2.5v-2.6h2.5V17l3-0.5v6h3.6l0.5,2.6h-4v9.3c0,1.4,0.6,2.2,2.3,2.2
		c0.6,0,1,0,1.4-0.1l0.5,2.6C163.1,39.2,162.2,39.3,161.2,39.3"/>
	<path class="st2" d="M171.4,24.6c-3,0-4.5,2.5-4.5,6.1c0,3.4,1.6,6.1,4.5,6.1c3.1,0,4.6-2.5,4.6-6.1
		C176,27.3,174.4,24.6,171.4,24.6 M171.4,39.3c-4.4,0-7.6-3.2-7.6-8.6c0-5.5,3.2-8.6,7.6-8.6c4.5,0,7.7,3.2,7.7,8.6
		C179.1,36.2,175.9,39.3,171.4,39.3"/>
	<path class="st2" d="M181.3,21.9h-0.3v0.7h0.3c0.2,0,0.5-0.1,0.5-0.3C181.7,22,181.6,21.9,181.3,21.9 M182,23.9l-0.7-1H181v1h-0.5
		v-2.4h0.7c0.5,0,0.8,0.2,0.8,0.7c0,0.3-0.2,0.6-0.5,0.7l0.7,0.9L182,23.9z M181.4,20.9c-1,0-1.8,0.7-1.8,1.9c0,1.3,0.8,1.9,1.8,1.9
		c1,0,1.8-0.7,1.8-1.9C183.1,21.5,182.3,20.9,181.4,20.9 M181.4,24.9c-1.3,0-2.1-0.9-2.1-2.2s0.9-2.2,2.1-2.2c1.3,0,2.1,0.9,2.1,2.2
		C183.4,24.1,182.5,24.9,181.4,24.9"/>
</g>
<g>
	<path d="M191,33.3c0.8-1.6,2.3-3,4.5-4.4l3.4-1.9c1.5-0.9,2.6-1.6,3.2-2.2c1-1,1.4-2.1,1.4-3.3c0-1.5-0.4-2.6-1.3-3.5
		c-0.9-0.9-2-1.3-3.5-1.3c-2.2,0-3.6,0.8-4.5,2.5c-0.4,0.9-0.7,2.1-0.7,3.6h-3.2c0-2.2,0.4-4,1.2-5.3c1.4-2.4,3.8-3.6,7.2-3.6
		c2.9,0,5,0.8,6.3,2.3c1.3,1.5,2,3.3,2,5.2c0,2-0.7,3.7-2.1,5.1c-0.8,0.8-2.3,1.8-4.4,3l-2.4,1.3c-1.1,0.6-2,1.2-2.7,1.8
		c-1.2,1-1.9,2.1-2.2,3.4h13.7v3h-17.2C189.8,36.8,190.3,34.9,191,33.3z"/>
</g>
</svg>
