<?xml version="1.0" encoding="utf-8"?>
<!-- Generator: Adobe Illustrator 19.2.1, SVG Export Plug-In . SVG Version: 6.00 Build 0)  -->
<svg version="1.1" id="Layer_1" xmlns="http://www.w3.org/2000/svg" xmlns:xlink="http://www.w3.org/1999/xlink" x="0px" y="0px"
	 viewBox="0 0 161 48" style="enable-background:new 0 0 161 48;" xml:space="preserve" width="187" height="55">
<style type="text/css">
	.st0{fill:#F37B20;}
	.st1{fill:#FAB37C;}
	.st2{fill:#171113;}
</style>
<g>
	<path class="st0" d="M27.6,15v25.4L25,42l-2.5-1.5V15l-6.5,4v21.7l9,5.5l9.1-5.5V19L27.6,15z M25,1.6L6.2,13.1v21.8l4.9,2.9V16
		l14-8.5l14,8.5l0.1,0l0,21.7l4.9-2.9V13.1L25,1.6z"/>
	<path class="st1" d="M44,13.1L25,1.6L6.2,13.1l4.9,2.9l14-8.5L39.1,16L44,13.1z M27.6,15v8l6.6-4L27.6,15z M16.1,19l6.5,4V15
		L16.1,19z"/>
	<polygon class="st2" points="72.8,34 71.5,17.4 64.9,34.1 62.8,34.1 56.2,17.4 54.9,34 52.2,34 53.9,13.1 57.4,13.1 63.9,30.3 
		70.4,13.1 73.9,13.1 75.5,34 	"/>
	<path class="st2" d="M86.5,26.7c-5.3,0.5-6.5,2-6.5,3.5c0,1.2,0.8,1.9,2.2,1.9c1.6,0,3.1-0.8,4.3-2V26.7z M87.1,34l-0.3-1.9
		c-1.2,1.2-2.7,2.2-5.1,2.2c-2.6,0-4.2-1.6-4.2-4c0-3.6,3.1-5,9.1-5.7V24c0-1.8-1.1-2.5-2.8-2.5c-1.8,0-3.4,0.5-5,1.2l-0.4-2.3
		c1.7-0.7,3.4-1.2,5.6-1.2c3.5,0,5.2,1.4,5.2,4.6V34L87.1,34L87.1,34z"/>
	<path class="st2" d="M97.3,21.2c-1.8,0-2.9,1.4-2.9,3.2c0,1.7,1.2,3,2.9,3c1.8,0,3-1.4,3-3.1C100.3,22.5,99.1,21.2,97.3,21.2
		 M93.4,35.6c0,1.2,1.5,2,4.3,2c2.8,0,4.4-1,4.4-2.2c0-0.9-0.7-1.5-2.7-1.8l-1.7-0.3c-0.8-0.2-1.2-0.2-1.8-0.4
		C94.1,33.7,93.4,34.6,93.4,35.6 M104.7,19.4l0.4,2.4l-2.8,0.3c0.4,0.7,0.6,1.4,0.6,2.2c0,3.1-2.6,5-5.5,5c-0.4,0-0.7,0-1.1-0.1
		c-0.4,0.3-0.7,0.6-0.7,0.9c0,0.5,0.5,0.6,3.1,1.1l1,0.2c3.1,0.5,5,1.5,5,3.8c0,3-3.3,4.5-7.1,4.5c-3.8,0-6.8-1.2-6.8-3.7
		c0-1.5,1-2.6,3.1-3.7c-0.6-0.5-0.9-1-0.9-1.5c0-0.7,0.5-1.4,1.5-2c-1.6-0.8-2.7-2.3-2.7-4.3c0-3.1,2.6-5,5.5-5
		c1.5,0,2.7,0.4,3.7,1.2L104.7,19.4z"/>
	<path class="st2" d="M111.4,21.4c-1.7,0-3.1,1.2-3.5,3.7h7C114.5,22.7,113.5,21.4,111.4,21.4 M117.6,27.1h-9.8
		c0.1,3.4,1.7,4.9,4.2,4.9c2.1,0,3.6-0.8,5.2-2.1l0.4,2.4c-1.5,1.2-3.4,1.9-5.8,1.9c-3.8,0-6.7-2.3-6.7-7.6c0-4.6,2.7-7.5,6.4-7.5
		c4.2,0,6.1,3.2,6.1,7.2L117.6,27.1L117.6,27.1z"/>
	<path class="st2" d="M128.9,34v-9.8c0-1.5-0.6-2.5-2.2-2.5c-1.4,0-2.9,0.9-4.2,2.3v10h-2.7V19.6h2.2l0.3,2.1
		c1.4-1.2,3.1-2.4,5.1-2.4c2.7,0,4.2,1.6,4.2,4.2V34L128.9,34L128.9,34z"/>
	<path class="st2" d="M139.6,34.3c-2.5,0-4.2-0.9-4.2-3.8v-8.6h-2.2v-2.3h2.2v-4.8l2.6-0.4v5.2h3.1l0.4,2.3H138V30
		c0,1.2,0.5,1.9,2,1.9c0.5,0,0.9,0,1.2-0.1l0.4,2.3C141.2,34.2,140.5,34.3,139.6,34.3"/>
	<path class="st2" d="M148.5,21.5c-2.6,0-3.9,2.2-3.9,5.3c0,3,1.4,5.3,3.9,5.3c2.7,0,4-2.2,4-5.3C152.5,23.8,151.1,21.5,148.5,21.5
		 M148.5,34.3c-3.8,0-6.6-2.8-6.6-7.5c0-4.8,2.8-7.5,6.6-7.5c3.9,0,6.7,2.8,6.7,7.5C155.2,31.6,152.4,34.3,148.5,34.3"/>
	<path class="st2" d="M157.1,19.1h-0.3v0.6h0.3c0.2,0,0.4-0.1,0.4-0.3C157.5,19.2,157.4,19.1,157.1,19.1 M157.7,20.9l-0.6-0.9h-0.2
		v0.9h-0.4v-2.1h0.6c0.4,0,0.7,0.2,0.7,0.6c0,0.3-0.2,0.5-0.4,0.6l0.6,0.8L157.7,20.9z M157.2,18.2c-0.9,0-1.6,0.6-1.6,1.7
		c0,1.1,0.7,1.7,1.6,1.7c0.9,0,1.6-0.6,1.6-1.7C158.7,18.8,158,18.2,157.2,18.2 M157.2,21.7c-1.1,0-1.8-0.8-1.8-1.9
		c0-1.1,0.8-1.9,1.8-1.9c1.1,0,1.8,0.8,1.8,1.9C159,21,158.2,21.7,157.2,21.7"/>
</g>
</svg>
