<svg width="110" height="110" viewBox="0 0 110 110" fill="none" xmlns="http://www.w3.org/2000/svg">
<path d="M0 32.851C0 15.21 15.1476 1.37705 32.7161 2.97419L79.8528 7.25935C96.4585 8.76896 108.647 23.5298 106.988 40.1213L102.985 80.1489C101.336 96.6352 86.6352 108.664 70.1489 107.015L27.0149 102.701C11.6788 101.168 0 88.2629 0 72.8504V32.851Z" fill="#F3F5FB"/>
<path fill-rule="evenodd" clip-rule="evenodd" d="M34.3137 39.5686C34.3137 38.3665 35.2882 37.3921 36.4902 37.3921H63.5098C64.7118 37.3921 65.6863 38.3665 65.6863 39.5686V76.6078L61.7647 74.647L57.8431 76.6078L53.9216 74.647L50 76.6078L46.0784 74.647L42.1569 76.6078L38.2353 74.647L34.3137 76.6078V39.5686Z" stroke="#1D73EC" stroke-width="4" stroke-linecap="round" stroke-linejoin="round"/>
<path d="M43.1372 47.196H56.8627" stroke="#1D73EC" stroke-width="4" stroke-linecap="round" stroke-linejoin="round"/>
<path d="M43.1372 54.0588H56.8627" stroke="#1D73EC" stroke-width="4" stroke-linecap="round" stroke-linejoin="round"/>
<path d="M43.1372 60.9216H50.9803" stroke="#1D73EC" stroke-width="4" stroke-linecap="round" stroke-linejoin="round"/>
</svg>
