<svg width="168" height="32" viewBox="0 0 168 32" fill="none" xmlns="http://www.w3.org/2000/svg">
<path fill-rule="evenodd" clip-rule="evenodd" d="M28.8284 23.7708C28.9221 23.8919 28.9731 24.0411 28.9731 24.1943C28.9731 24.5758 28.6647 24.8849 28.2841 24.8849H24.585L24.5869 31.1967C24.5869 31.3367 24.5446 31.4734 24.4654 31.5887C24.2496 31.9029 23.8207 31.982 23.5074 31.7657L19.8884 29.2673C19.7018 29.1385 19.5903 28.9258 19.5903 28.6987L19.5901 27.6942V24.8852L18.617 24.8849L12.5384 24.884C11.6478 24.8451 11.4521 24.8339 11.4136 24.8305C5.20972 24.237 0.53125 19.0456 0.53125 12.7552C0.53125 6.06675 5.92711 0.625244 12.5597 0.625244C18.9112 0.625244 24.185 5.62912 24.5663 12.0207C24.5697 12.0751 24.5733 13.435 24.5771 16.1002C24.5771 16.1004 24.5771 16.1006 24.5771 16.1011C24.5771 16.4824 24.2685 16.7917 23.8882 16.7917H20.2773C19.897 16.7917 19.5884 16.4824 19.5884 16.1011L19.5882 12.1557L19.5824 12.0327C19.4126 10.2253 18.9208 8.5537 17.5721 7.32569C16.3507 6.21375 14.804 5.55286 13.1699 5.43608C12.9958 5.42361 12.8204 5.41714 12.6446 5.41714C8.61152 5.41714 5.33004 8.69614 5.33004 12.7264C5.33004 16.4855 8.14626 19.611 11.8808 19.9964H25.5658C25.7787 19.9964 25.9794 20.095 26.11 20.2633L28.8284 23.7708Z" fill="#1D75EC"/>
<path fill-rule="evenodd" clip-rule="evenodd" d="M31.4453 15.77V1.00724C31.4453 0.659824 31.7552 0.347273 32.0994 0.347273H36.335C36.714 0.347273 36.9894 0.659824 36.9894 1.00724V15.4921C36.9894 18.0278 38.7801 19.4521 41.225 19.4521C43.7043 19.4521 45.5294 18.0278 45.5294 15.4921V1.00724C45.5294 0.659824 45.8049 0.347273 46.1838 0.347273H50.4194C50.7637 0.347273 51.0735 0.659824 51.0735 1.00724V15.77C51.0735 21.05 46.6658 25.0098 41.225 25.0098C35.8186 25.0098 31.4453 21.05 31.4453 15.77ZM54.76 24.6627C54.2433 24.6627 53.9679 24.211 54.1744 23.7595L64.953 0.382034C65.0563 0.173586 65.2973 0 65.5383 0H65.8828C66.1238 0 66.3648 0.173586 66.4681 0.382034L77.2464 23.7595C77.4532 24.211 77.1776 24.6627 76.6611 24.6627H72.8387C72.219 24.6627 71.9433 24.4543 71.6335 23.7943L70.3938 21.0501H61.0273L59.7876 23.8289C59.6155 24.2458 59.2365 24.6627 58.548 24.6627H54.76ZM63.0907 16.3261H68.3249L65.7077 10.5946H65.6733L63.0907 16.3261ZM81.3398 24.0023V1.00713C81.3398 0.659719 81.6155 0.347168 81.9598 0.347168H90.3621C97.0081 0.347168 102.449 5.80071 102.449 12.4701C102.449 19.2087 97.0081 24.6625 90.3621 24.6625H81.9598C81.6155 24.6625 81.3398 24.3497 81.3398 24.0023ZM86.7142 19.5216H90.3301C94.2214 19.5216 96.7351 16.4299 96.7351 12.4701C96.7351 8.54498 94.2214 5.45336 90.3301 5.45336H86.7142V19.5216ZM107.926 24.0024V1.00724C107.926 0.659824 108.201 0.347273 108.58 0.347273H116.879C121.425 0.347273 124.593 3.82092 124.593 8.02378C124.593 12.3312 121.425 15.8395 116.913 15.8395H113.298V24.0024C113.298 24.3498 112.988 24.6626 112.643 24.6626H108.58C108.201 24.6626 107.926 24.3498 107.926 24.0024ZM113.301 10.768H116.779C118.26 10.768 119.293 9.58699 119.293 8.02375C119.293 6.56485 118.26 5.45337 116.779 5.45337H113.301V10.768ZM125.146 24.6627C124.63 24.6627 124.354 24.211 124.561 23.7595L135.34 0.382034C135.443 0.173586 135.684 0 135.925 0H136.269C136.51 0 136.751 0.173586 136.855 0.382034L147.633 23.7595C147.84 24.211 147.564 24.6627 147.048 24.6627H143.225C142.605 24.6627 142.33 24.4543 142.02 23.7943L140.78 21.0501H131.414L130.174 23.8289C130.002 24.2458 129.623 24.6627 128.935 24.6627H125.146ZM133.48 16.3262H138.715L136.098 10.5947H136.063L133.48 16.3262ZM154.246 24.0023V12.9562L146.635 1.35455C146.36 0.902788 146.635 0.347168 147.186 0.347168H151.663C151.938 0.347168 152.111 0.520754 152.214 0.659719L157.001 7.78061L161.787 0.659719C161.89 0.520754 162.028 0.347168 162.338 0.347168H166.815C167.366 0.347168 167.641 0.902788 167.366 1.35455L159.652 12.9216V24.0023C159.652 24.3497 159.342 24.6625 158.998 24.6625H154.9C154.521 24.6625 154.246 24.3497 154.246 24.0023Z" fill="#13131F"/>
</svg>
