<svg width="146" height="29" viewBox="0 0 146 29" fill="none" xmlns="http://www.w3.org/2000/svg">
<path fill-rule="evenodd" clip-rule="evenodd" d="M24.7475 20.9636C24.8295 21.0695 24.8741 21.2 24.8741 21.334C24.8741 21.6677 24.6044 21.938 24.2716 21.938H21.0364L21.0381 27.458C21.0381 27.5805 21.0011 27.7 20.9318 27.8009C20.7431 28.0756 20.368 28.1448 20.094 27.9556L16.9289 25.7706C16.7658 25.658 16.6683 25.4719 16.6683 25.2733L16.6681 24.3948V21.9382L15.817 21.938L10.501 21.9371C9.7221 21.9032 9.55097 21.8933 9.51729 21.8904C4.0916 21.3713 0 16.8311 0 11.3298C0 5.48036 4.719 0.721436 10.5196 0.721436C16.0744 0.721436 20.6867 5.09762 21.0201 10.6874C21.0231 10.7351 21.0262 11.9244 21.0295 14.2552C21.0295 14.2554 21.0295 14.2556 21.0295 14.256C21.0295 14.5895 20.7597 14.86 20.427 14.86H17.2691C16.9365 14.86 16.6666 14.5895 16.6666 14.256L16.6664 10.8055L16.6614 10.6979C16.5128 9.11729 16.0827 7.65534 14.9032 6.58138C13.835 5.60892 12.4823 5.03093 11.0533 4.9288C10.901 4.91789 10.7476 4.91223 10.5939 4.91223C7.06668 4.91223 4.19683 7.77992 4.19683 11.3046C4.19683 14.5922 6.65978 17.3257 9.92586 17.6627H21.8942C22.0804 17.6627 22.2559 17.7489 22.3701 17.8961L24.7475 20.9636Z" fill="#DDE3E8"/>
<path fill-rule="evenodd" clip-rule="evenodd" d="M27.0352 13.9665V1.05552C27.0352 0.751685 27.3061 0.47834 27.6072 0.47834H31.3115C31.6429 0.47834 31.8838 0.751685 31.8838 1.05552V13.7234C31.8838 15.9411 33.4499 17.1867 35.5881 17.1867C37.7564 17.1867 39.3526 15.9411 39.3526 13.7234V1.05552C39.3526 0.751685 39.5934 0.47834 39.9249 0.47834H43.6291C43.9302 0.47834 44.2012 0.751685 44.2012 1.05552V13.9665C44.2012 18.5841 40.3464 22.0472 35.5881 22.0472C30.8599 22.0472 27.0352 18.5841 27.0352 13.9665ZM47.4237 21.7436C46.9719 21.7436 46.731 21.3485 46.9116 20.9536L56.3381 0.508672C56.4285 0.326372 56.6392 0.174561 56.85 0.174561H57.1513C57.3621 0.174561 57.5728 0.326372 57.6632 0.508672L67.0895 20.9536C67.2703 21.3485 67.0292 21.7436 66.5776 21.7436H63.2346C62.6927 21.7436 62.4516 21.5613 62.1806 20.9841L61.0965 18.5841H52.9048L51.8207 21.0144C51.6702 21.379 51.3387 21.7436 50.7366 21.7436H47.4237ZM54.7118 14.4527H59.2895L57.0006 9.44014H56.9704L54.7118 14.4527ZM70.6719 21.1661V1.05545C70.6719 0.751616 70.913 0.478271 71.2141 0.478271H78.5624C84.3748 0.478271 89.1331 5.24772 89.1331 11.0805C89.1331 16.9738 84.3748 21.7435 78.5624 21.7435H71.2141C70.913 21.7435 70.6719 21.4699 70.6719 21.1661ZM75.3714 17.2474H78.5338C81.9369 17.2474 84.1353 14.5436 84.1353 11.0805C84.1353 7.64772 81.9369 4.94392 78.5338 4.94392H75.3714V17.2474ZM93.9219 21.1661V1.05545C93.9219 0.751616 94.1628 0.478271 94.494 0.478271H101.752C105.727 0.478271 108.498 3.51619 108.498 7.19184C108.498 10.959 105.727 14.0272 101.782 14.0272H98.62V21.1661C98.62 21.4699 98.349 21.7435 98.0477 21.7435H94.494C94.1628 21.7435 93.9219 21.4699 93.9219 21.1661ZM98.6212 9.59184H101.663C102.958 9.59184 103.861 8.55901 103.861 7.19187C103.861 5.91598 102.958 4.94392 101.663 4.94392H98.6212V9.59184ZM108.982 21.7436C108.531 21.7436 108.29 21.3485 108.471 20.9536L117.897 0.508672C117.987 0.326372 118.198 0.174561 118.409 0.174561H118.71C118.921 0.174561 119.132 0.326372 119.222 0.508672L128.648 20.9536C128.829 21.3485 128.588 21.7436 128.136 21.7436H124.794C124.251 21.7436 124.011 21.5613 123.739 20.9841L122.655 18.5841H114.464L113.379 21.0144C113.229 21.379 112.898 21.7436 112.295 21.7436H108.982ZM116.269 14.4527H120.847L118.558 9.44014H118.528L116.269 14.4527ZM134.429 21.1662V11.5057L127.774 1.35935C127.533 0.964263 127.774 0.47834 128.255 0.47834H132.171C132.412 0.47834 132.562 0.630151 132.652 0.751685L136.839 6.97933L141.025 0.751685C141.115 0.630151 141.235 0.47834 141.507 0.47834H145.422C145.904 0.47834 146.145 0.964263 145.904 1.35935L139.158 11.4754V21.1662C139.158 21.47 138.887 21.7435 138.585 21.7435H135.002C134.67 21.7435 134.429 21.47 134.429 21.1662Z" fill="#DDE3E8"/>
</svg>
