<?xml version="1.0" encoding="utf-8"?>
<!-- Generator: Adobe Illustrator 23.0.3, SVG Export Plug-In . SVG Version: 6.00 Build 0)  -->
<svg version="1.1" id="Layer_1" xmlns="http://www.w3.org/2000/svg" xmlns:xlink="http://www.w3.org/1999/xlink" x="0px" y="0px"
	 width="428px" height="433.5px" viewBox="0 0 428 433.5" style="enable-background:new 0 0 428 433.5;" xml:space="preserve">
<style type="text/css">
	.st0{fill:none;stroke:#E6EDF1;stroke-width:1.8471;stroke-linecap:round;stroke-dasharray:8.31;}
	.st1{fill-rule:evenodd;clip-rule:evenodd;fill:#1D73EC;}
	.st2{fill-rule:evenodd;clip-rule:evenodd;fill:#FFFFFF;}
	.st3{fill:none;}
	.st4{fill:#FFFFFF;filter:url(#Adobe_OpacityMaskFilter);}
	.st5{mask:url(#mask0_1_);}
	.st6{fill:#FFFFFF;}
</style>
<path class="st0" d="M18.8,62.8c0,0,96-86,144.8-55.2c50.1,31.7,85.3,52.3,140.8,188.6"/>
<path class="st0" d="M14.5,67.3c0,0-15.8,96.1,31.2,118.5c48.3,23,145.8-106.8,150.4-35.5"/>
<path class="st1" d="M276.3,128.5c6.1,0,11.1-5,11.1-11.1c0-6.1-5-11.1-11.1-11.1c-6.1,0-11.1,5-11.1,11.1
	C265.2,123.5,270.1,128.5,276.3,128.5z"/>
<path class="st2" d="M274.3,120.6c0.5,0.4,1.2,0.4,1.6,0l5.2-5.1c0.5-0.4,0.5-1.2,0-1.6c-0.5-0.4-1.2-0.4-1.6,0l-4.4,4.3l-2.1-2.1
	c-0.5-0.4-1.2-0.4-1.6,0c-0.5,0.4-0.5,1.2,0,1.6L274.3,120.6z"/>
<rect x="55" y="27.4" class="st3" width="191.3" height="401.1"/>
<defs>
	<filter id="Adobe_OpacityMaskFilter" filterUnits="userSpaceOnUse" x="65.7" y="38" width="170" height="392.3">
		<feColorMatrix  type="matrix" values="1 0 0 0 0  0 1 0 0 0  0 0 1 0 0  0 0 0 1 0"/>
	</filter>
</defs>
<mask maskUnits="userSpaceOnUse" x="65.7" y="38" width="170" height="392.3" id="mask0_1_">
	<path class="st4" d="M78,38.3h145.4c6.7,0,12.1,5.4,12.1,12.1v342c0,6.7-5.4,12.1-12.1,12.1H78c-6.7,0-12.1-5.4-12.1-12.1v-342
		C65.9,43.7,71.3,38.3,78,38.3z"/>
</mask>
<g class="st5">
	<rect x="65.7" y="38" class="st3" width="169.6" height="236.4"/>
	<rect x="65.7" y="38" class="st6" width="169.6" height="236.4"/>
	<rect x="65.7" y="38" class="st3" width="170" height="316.1"/>
	<rect x="65.7" y="317.9" class="st3" width="170" height="112.4"/>
</g>
<rect x="156.6" y="204.5" transform="matrix(0.8849 -0.4657 0.4657 0.8849 -105.8734 163.5121)" class="st3" width="242.8" height="183"/>
<path class="st1" d="M12.6,92.6c6.9,0,12.6-5.6,12.6-12.6c0-6.9-5.6-12.6-12.6-12.6C5.6,67.5,0,73.1,0,80.1C0,87,5.6,92.6,12.6,92.6
	z"/>
<path class="st2" d="M10.3,83.7c0.5,0.5,1.3,0.5,1.8,0l5.9-5.8c0.5-0.5,0.5-1.3,0-1.8c-0.5-0.5-1.3-0.5-1.8,0L11.2,81l-2.3-2.3
	c-0.5-0.5-1.3-0.5-1.8,0c-0.5,0.5-0.5,1.3,0,1.8L10.3,83.7z"/>
</svg>
