<svg width="29" height="29" viewBox="0 0 29 29" fill="none" xmlns="http://www.w3.org/2000/svg">
<path d="M12.4823 0.760296C12.6732 0.522958 12.915 0.331455 13.1897 0.199878C13.4644 0.0683013 13.7652 0 14.0698 0C14.3744 0 14.6751 0.0683013 14.9499 0.199878C15.2246 0.331455 15.4663 0.522958 15.6573 0.760296L17.5473 3.11155C17.7613 3.3783 18.0391 3.58683 18.355 3.71791C18.6709 3.84899 19.0148 3.89839 19.3548 3.86155L22.3548 3.5353C22.6585 3.50156 22.9659 3.53656 23.2542 3.63771C23.5425 3.73885 23.8044 3.90355 24.0205 4.11961C24.2365 4.33567 24.4012 4.59756 24.5024 4.88589C24.6035 5.17422 24.6385 5.48161 24.6048 5.7853L24.2785 8.7853C24.2417 9.12532 24.2911 9.46915 24.4222 9.78505C24.5533 10.101 24.7618 10.3787 25.0285 10.5928L27.3798 12.4828C27.6171 12.6737 27.8086 12.9155 27.9402 13.1902C28.0718 13.4649 28.1401 13.7657 28.1401 14.0703C28.1401 14.3749 28.0718 14.6757 27.9402 14.9504C27.8086 15.2251 27.6171 15.4668 27.3798 15.6578L25.021 17.539C24.7544 17.7534 24.5459 18.0315 24.4148 18.3476C24.2838 18.6636 24.2343 19.0076 24.271 19.3478L24.5973 22.3478C24.6313 22.6515 24.5964 22.959 24.4954 23.2475C24.3943 23.5359 24.2296 23.7979 24.0135 24.014C23.7974 24.2301 23.5354 24.3948 23.247 24.4959C22.9585 24.5969 22.651 24.6318 22.3473 24.5978L19.3473 24.2715C19.0073 24.2346 18.6634 24.2839 18.3475 24.415C18.0316 24.5461 17.7538 24.7547 17.5398 25.0215L15.6573 27.364C15.4665 27.6016 15.2248 27.7933 14.95 27.925C14.6753 28.0567 14.3745 28.1251 14.0698 28.1251C13.7651 28.1251 13.4643 28.0567 13.1895 27.925C12.9148 27.7933 12.6731 27.6016 12.4823 27.364L10.5935 25.014C10.3792 24.7473 10.1012 24.5388 9.7851 24.4077C9.469 24.2766 9.125 24.2272 8.78479 24.264L5.78479 24.5903C5.481 24.6245 5.17341 24.5899 4.88486 24.4889C4.5963 24.3879 4.33421 24.2232 4.11804 24.007C3.90187 23.7909 3.73718 23.5288 3.63621 23.2402C3.53524 22.9517 3.50057 22.6441 3.53479 22.3403L3.86104 19.3403C3.89787 19.0001 3.84847 18.6561 3.7174 18.34C3.58633 18.0239 3.3778 17.7459 3.11104 17.5315L0.761041 15.6428C0.523499 15.452 0.331805 15.2103 0.200091 14.9355C0.0683771 14.6608 0 14.36 0 14.0553C0 13.7506 0.0683771 13.4498 0.200091 13.175C0.331805 12.9003 0.523499 12.6586 0.761041 12.4678L3.11104 10.5778C3.37788 10.3638 3.58648 10.086 3.71757 9.77012C3.84866 9.4542 3.898 9.11033 3.86104 8.7703L3.53479 5.7703C3.50081 5.46656 3.53565 5.15907 3.63671 4.87063C3.73776 4.58219 3.90246 4.32019 4.11857 4.10408C4.33469 3.88796 4.59668 3.72327 4.88512 3.62221C5.17356 3.52115 5.48105 3.48632 5.78479 3.5203L8.78479 3.84655C9.12499 3.88326 9.46896 3.83381 9.78503 3.70274C10.1011 3.57168 10.3791 3.36322 10.5935 3.09655L12.4823 0.760296Z" fill="#0058FF"/>
<path d="M18.7578 11.2502L13.7816 17.8852C13.7009 17.9926 13.5982 18.0814 13.4803 18.1456C13.3624 18.2098 13.232 18.2479 13.0981 18.2574C12.9642 18.2669 12.8298 18.2475 12.704 18.2006C12.5782 18.1536 12.464 18.0802 12.3691 17.9852L9.38281 15.0002" stroke="#FEFFFF" stroke-width="1.75" stroke-linecap="round" stroke-linejoin="round"/>
</svg>
